{
  "title": "Salesforce Experience Cloud | Horizontal Digital",
  "theme":"theme-dark-header",
  "meta": {
    "description": "An experience-forward digital consultancy, solving CX challenges across the full customer lifecycle."
  },
  "og": {
    "title":"Salesforce Experience Cloud | Horizontal Digital",
    "description":"An experience-forward digital consultancy, solving CX challenges across the full customer lifecycle.",
    "url":"https://horizontaldigital.com/platforms",
    "sitename":"Horizontal Digital",
    "img":{
      "src":"https://hztl-fed.azureedge.net/hztl/images/HZTL_SocialImage.png"
    }
  },
  "components": [
    {
      "template":"components/section-banner",
      "class":"theme-dark flush-bottom-margin",
      "col":"col-md-8",
      "headline":{
        "title":"Experience Cloud",
        "size":"display-large",
        "super":"Salesforce"
      }
    },
    {
      "template": "components/section-wide-media",
      "class":"theme-dark-top contain-media collapse-bottom-margin",
      "imgs": [
        {
          "src": "https://hztl-fed.azureedge.net/hztl/images/platforms/salesforce/banner_experienceCloud.png",
          "alt": "Experience Cloud hero image"
        }
      ]
    },
    {
      "template":"components/section-col-single",
      "class":"medium-bottom-margin",
      "title":"Experience Cloud Expertise that simply raises expectations",
      "content": [
        {
          "template":"components/rte",
          "content":"<p>As a recognized expert in implementing enterprise CMS solutions and digital experience platforms, we’ve built a reputation on helping global brands fully leverage Salesforce Experience Cloud. The outcome: Exceptional website, mobile and portal experiences that merge strategic insights with our creative and technical expertise to create engagements that surpass expectations.</p><p>Our personalization capabilities matched with the standardization processes of Experience Cloud ensure that each persona is surfaced with content most relevant to them to guide them through their next steps in their journey — ultimately serving lasting relationships in the process.</p>"
        }
      ]
    },
    {
      "template":"components/section-col-single",
      "class":"medium-bottom-margin",
      "title":"Your complex challenges, our complete expertise",
      "content": [
        {
          "template":"components/rte",
          "content":"<p>Our capabilities drive enhances personalized journeys, fast</p>"
        },
        {
          "template":"components/component-data-tile",
          "items":[
            {"content":"<div class=\"display-2\">16</div><div class=\"display-4\">Certified consultants and counting</div>"},
            {"content":"<div class=\"display-2\">Salesforce CMS</div><div class=\"display-4\">Accredited</div>"},
            {"content":"<div class=\"display-2\">Community Cloud</div><div class=\"display-4\">Advisory Board Member</div>"},
            {"content":"<div class=\"display-2\">Enterprise CMS</div><div class=\"display-4\">Leader</div>"},
            {"content":"<div class=\"display-2\">Salesforce</div><div class=\"display-4\">is a Client</div>"},
            {"content":"<div class=\"display-2\">CMS Connect App</div><div class=\"display-4\">Custom Innovation</div>"},
            {"content":"<div class=\"display-2\">CMS Sync App</div><div class=\"display-4\">Custom Innovation</div>"}
          ]
        }
      ]
    },
    {
      "template":"components/section-big-quote",
      "class":"theme-dark medium-bottom-margin",
      "size":"display-3",
      "quote":"<p>Our project was a cross-cloud build that utilized Service Cloud, Community Cloud, Education Cloud, Einstein Analytics, and Salesforce CMS. The success of this 6-week engagement came from an incredible community at Horizontal who provided a high level of acumen with such a complex project and provided an even higher level of communication. The ability to tightly scope the project and remain resource conscious was a breath of fresh air. We believe it takes a community to achieve success and that is exactly what you will find with the Horizontal community.</p>",
      "cite":"Chief Strategy Officer, Olivet University | Kathleen T. Lueckeman",
      "img":{
        "src":"https://hztl-fed.azureedge.net/hztl/images/platforms/salesforce/Olivet_logo.png",
        "alt":"Olivet University Logo"
      }
    },
    {
      "template":"components/section-col-single",
      "class":"medium-bottom-margin",
      "title":"A connected experience approach that quickly grows your Experience Cloud investment",
      "content": [
        {
          "template":"components/rte",
          "content":"<p>We know from 20+ years of experience that implementing enterprise CMS solutions and building out multi-tenant digital environments across a company's portfolio of brands takes an army of specialists — the exact type of talent that we've woven together from Day 1. Our unique approach of blending technical Salesforce Experience Cloud specialists with our team of creative strategists and UX designers allows our clients to build cohesive, connected experiences that deliver personalized engagements across every stage of the user's journey.</p>"
        }
      ]
    },
    {
      "template":"components/section-col-single",
      "title":"We help build cultures that make connected experiences work",
      "content": [
        {
          "template":"components/rte",
          "content":"<p>We believe that exceptional experiences build greater possibilities between organizations and their customers. But we also know that organizations rely on great experiences internally to foster growth and innovation.</p><p>We focus on four key pillars within your organization to realize long-term success with your Experience Cloud implementation: Putting the right people in place across your martech operations, developing cross-functional teams within your organization to remove communication silos, harnessing your data across departments to pinpoint richer customer insights, and integrating your tools to ensure you can fully execute on meeting customers with the right message, in the right moment.</p><p>The result is Salesforce implementations that are designed right the first time around. But we don’t stop there. We also ensure they’re built for future scalability, and fully supported with training and enablement for customer independence.</p>"
        }
      ]
    },
    {
      "template":"components/section-callout",
      "class":"theme-peach",
      "title":"Interested in learning more about Exprience Cloud?",
      "content":"<p>Our team is here to help achieve your goals. Let's talk.</p>",
      "link":{
        "url":"https://horizontaldigital.com/contact-us",
        "text":"Contact Us"
      }
    },
    {
      "template":"components/section-footer-cta",
      "items": [
        {
          "type":"insights",
          "tag":"Insights",
          "title":"Building a 360-Degree View",
          "content":"The three benefits of achieving a unified, 360-degree picture of your customer journeys.",
          "link":{
            "url":"https://www.horizontaldigital.com/insights/360-view-of-the-customer"
          }
        },
        {
          "type":"work",
          "tag":"Work",
          "title":"UnitedHealth Group",
          "content":"Helping a company find its future through smarter hiring.",
          "link":{
            "url":"https://www.horizontaldigital.com/work/uhg"
          }
        }
      ]
    }
  ]
}
