{
  "title": "Customer Data Management | Horizontal Digital",
  "theme": "theme-dark",
  "meta": {
    "description": "An experience-forward digital consultancy, solving CX challenges across the full customer lifecycle."
  },
  "og": {
    "title": "Customer Data Management | Horizontal Digital",
    "description": "An experience-forward digital consultancy, solving CX challenges across the full customer lifecycle.",
    "url": "https://horizontaldigital.com/services",
    "sitename": "Horizontal Digital",
    "img": {
      "src": "https://hztl-fed.azureedge.net/hztl/images/HZTL_SocialImage.png"
    }
  },
  "components": [
    {
      "template": "components/section-banner",
      "class": "collapse-bottom-margin",
      "col":"col-md-8",
      "headline": {
        "title": "Infrastructure, Integrations & Governance",
        "size": "display-xlarge display-super"
      },
      "img": {
        "src": "https://hiprodcdn.azureedge.net/-/media/project/horizontal/dotcom/digital/crs_hero_2x.png",
        "alt": " "
      }
    },
    {
      "template": "components/section-col-single",
      "title": "Creating superior customer experiences rquires a powerhouse technical foundation",
      "content": [
        {
          "template": "components/rte",
          "content": "<p>Users expect digital experiences that are safe, always-on and lightning fast. Downtime, lag time, missing data and bugs can cost businesses dollars and customers. We specialize in proven enterprise class infrastructure and integration solutions to connect systems and data in ways that is seamless and secure and blazing fast. We pride ourselves on providing safe hands and a knowledgeable team to guide customers through hosting, connecting, securing, scaling and governing their experience platform infrastructure.</p>"
        }
      ]
    },
    {
      "template": "components/section-col-single",
      "class": "medium-bottom-margin",
      "title": "Our capabilities and expertise",
      "content": [
        {
          "template": "components/rte",
          "content": "<h3>Infrastructure</h3>"
        },
        {
          "template": "components/component-cards-see-more",
          "items": [
            {
              "title": "API Management",
              "link": {
                "url": "/services/cx-strategy-and-design/",
                "text": "See More"
              }
            },
            {
              "title": "Cloud engineering",
              "link": {
                "url": "/services/sales-service-and-crm/",
                "text": "See More"
              }
            },
            {
              "title": "Release management",
              "link": {
                "url": "/platforms/acquia/",
                "text": "See More"
              }
            },
            {
              "title": "Reliability engineering",
              "link": {
                "url": "/services/cx-strategy-and-design/",
                "text": "See More"
              }
            },
            {
              "title": "Security engineering",
              "link": {
                "url": "/services/sales-service-and-crm/",
                "text": "See More"
              }
            }
          ]
        },
        {
          "template": "components/rte",
          "content": "<h3>Infrastructure</h3>"
        },
        {
          "template": "components/component-cards-see-more",
          "items": [
            {
              "title": "Commerce integrations",
              "link": {
                "url": "/services/cx-strategy-and-design/",
                "text": "See More"
              }
            },
            {
              "title": "Integration strategy",
              "link": {
                "url": "/services/sales-service-and-crm/",
                "text": "See More"
              }
            },
            {
              "title": "System integrations",
              "link": {
                "url": "/platforms/acquia/",
                "text": "See More"
              }
            }
          ]
        },
        {
          "template": "components/rte",
          "content": "<h3>Governance</h3>"
        },
        {
          "template": "components/component-cards-see-more",
          "items": [
            {
              "title": "InfoSec compliance",
              "link": {
                "url": "/services/cx-strategy-and-design/",
                "text": "See More"
              }
            },
            {
              "title": "System user administration & governance",
              "link": {
                "url": "/services/sales-service-and-crm/",
                "text": "See More"
              }
            }
          ]
        }
      ]
    },
    {
      "template": "components/section-col-single",
      "class": "medium-bottom-margin",
      "title": "Platforms & technologies",
      "content": [
        {
          "template": "components/component-cards",
          "items": [
            {
              "title": "Sitecore",
              "content": "<ul class=\"list-unstyled\"><li><a href=\"/platforms/sitecore/sc-exp-platform\">Sitecore Experience Platform</a></li><li><a href=\"/platforms/sitecore/sc-exp-commerce\">Sitecore Experience Commerce</a></li></ul>",
              "img": {
                "src": "https://hztl-fed.azureedge.net/hztl/images/platforms/SitecoreIcon.jpeg",
                "alt": "Sitecore"
              },
              "link": {
                "url": "/platforms/sitecore/",
                "text": "Learn more"
              }
            },
            {
              "title": "Salesforce",
              "content": "<ul class=\"list-unstyled\"><li><a href=\"/platforms/salesforce\">Service Cloud</a></li><li><a href=\"/platforms/salesforce\">Sales Cloud</a></li><li><a href=\"/platforms/salesforce/marketing-cloud\">Pardot</a></li><li><a href=\"/platforms/salesforce/marketing-cloud\">Marketing Cloud</a></li><li><a href=\"/platforms/salesforce/analytics-ai\">Tableau CRM</a></li><li><a href=\"/platforms/salesforce/analytics-ai\">Datorama</a></li></ul>",
              "img": {
                "src": "https://hztl-fed.azureedge.net/hztl/images/platforms/SalesforceIcon.jpeg",
                "alt": "Salesforce"
              },
              "link": {
                "url": "/platforms/salesforce/",
                "text": "Learn more"
              }
            },
            {
              "title": "Acquia",
              "content": "<ul class=\"list-unstyled\"><li>Acquia Edge CDN & Security</li><li>Drupal Cloud Platform</li><li>Acquia Migrate</li></ul>",
              "img": {
                "src": "https://hztl-fed.azureedge.net/hztl/images/platforms/AcquiaIcon.jpeg",
                "alt": "Acquia"
              },
              "link": {
                "url": "/platforms/acquia/",
                "text": "Learn more"
              }
            }
          ]
        }
      ]
    },
    {
      "template": "components/section-col-single",
      "title": "See how we ensure long term success",
      "content": [
        {
          "template": "components/rte",
          "content": "<h1>TODO data tile?</h1>"
        }
      ]
    },
    {
      "template": "components/section-col-single",
      "title": "Other Services",
      "content": [
        {
          "template": "components/rte",
          "content": "<h1>TODO</h1>"
        }
      ]
    },
    {
      "template": "components/section-col-single",
      "content": [
        {
          "template": "components/rte",
          "content": "<h1>TODO</h1>"
        }
      ]
    }
  ]
}
