{
  "title": "Sitecore Experience Platform | Horizontal Digital",
  "meta": {
    "description": "An experience-forward digital consultancy, solving CX challenges across the full customer lifecycle."
  },
  "og": {
    "title":"Sitecore Experience Platform | Horizontal Digital",
    "description":"An experience-forward digital consultancy, solving CX challenges across the full customer lifecycle.",
    "url":"https://horizontaldigital.com/platforms",
    "sitename":"Horizontal Digital",
    "img":{
      "src":"https://hztl-fed.azureedge.net/hztl/images/HZTL_SocialImage.png"
    }
  },
  "components": [
    {
      "template":"components/section-col-2-3",
      "class":"medium-bottom-margin force-top-margin",
      "title":"Sitecore Experience Platform",
      "content": [
        {
          "template":"components/rte",
          "content":"<h1 class=\"display-1\">Building moments that help customers do more</h1><p>When your competition is only a click or tap away, you get one chance to deliver the perfect experience at the right time. We design and implement Sitecore’s Experience Platform (XP) to power flexible and responsive solutions that sync with your customers’ needs, wants and ambitions. Plus, we fully train client staff to harness the potential of the platform and develop next-level experiences across every screen and touchpoint.</p>"
        }
      ]
    },
    {
      "template":"components/section-big-quote",
      "class":"theme-dark medium-bottom-margin",
      "size":"display-3",
      "quote":"<p>We’ve been working with the Experience Platform for almost as long as it has existed, and the best part of my job is helping clients unlock the true value of digital experience through smart technology solution design.</p>",
      "cite":"Sheetal Jain | VP Technology, Sitecore Technology MVP"
    },
    {
      "template":"components/section-col-single",
      "title":"What we do",
      "content": [
        {
          "template":"components/rte",
          "content":"<h3 class=\"display-2\">Globalized experiences</h3><p>Our technical and user experience designs support user experiences that reflect not only their language, but their cultural preferences with lightning-fast interactions from anywhere in the world.</p><h3 class=\"display-2\">Multi-brand/multi-tenant experiences</h3><p>We maximize ROI with content and technology solutions that scale with your business across an infinite number of unique experiences.</p><h3 class=\"display-2\">Intranets & portals</h3><p>Experience: it’s not just for marketing anymore. We use authentication to deliver highly individualized experiences that deliver the content and tools your employees, customers and suppliers need to continue productive relationships.</p><h3 class=\"display-2\">Headless solutions</h3><p>Sitecore JSS offers full freedom from traditional browser-based experiences. Deliver your content to any screen via any application framework for truly unified digital experiences and operations.</p><h3 class=\"display-2\">Compliant solutions</h3><p>Accessibility, security and privacy aren’t only for highly-regulated verticals like financial services and healthcare. They’re table stakes for any digital-first business. Take confidence in our expertise.</p><h3 class=\"display-2\">Cloud strategy</h3><p>PaaS. Containerization. Docker. Kubernetes. We were a leading innovator in cloud-based Sitecore solutions long before any of those words existed. Our experience keeps you ahead of what’s next.</p>"
        }
      ]
    }
  ]
}
