{
  "title": "Sitecore Symposium 2021 | Horizontal Digital",
  "meta": {
    "description": "An experience-forward digital consultancy, solving CX challenges across the full customer lifecycle."
  },
  "og": {
    "title":"Sitecore Symposium 2021 | Horizontal Digital",
    "description":"An experience-forward digital consultancy, solving CX challenges across the full customer lifecycle.",
    "url":"https://horizontaldigital.com/",
    "sitename":"Horizontal Digital",
    "img":{
      "src":"https://hztl-fed.azureedge.net/hztl/images/HZTL_SocialImage.png"
    }
  },
  "components": [
    {
      "template":"components/section-banner",
      "class":"theme-dark collapse-bottom-margin",
      "style":"max-width:100%",
      "content": [
        {
          "template":"components/rte",
          "content":"<div style=\"text-align:center;\"><img class=\"img-fluid\" alt=\" \" src=\"https://hztl-fed.azureedge.net/hztl/images/pardot/symposium-2021/debutedatsymposium.png\"></div><h1 class=\"sr-only\">Horizontal Digital and Sitecore Symposium 2021: Debuted at Symposium</h1><h2 class=\"display-3\" style=\"margin-top:30px;text-align:center;\">Our award-winning work featured during Symposium 2021</h2>"
        }
      ],
      "img":{
        "src":"https://hztl-fed.azureedge.net/hztl/images/pardot/symposium-2021/banner_dark_bg.png"
      }
    },
    {
      "template":"components/section-banner",
      "class":"collapse-bottom-margin",
      "content": [
        {
          "template":"components/rte",
          "content":"<h2 class=\"display-1\">See ya next Symposium</h2><p class=\"display-3\">It was great connecting with everyone at this year's event. Until next time, view Horizontal's recap below, and let's stay connected!</p>"
        }
      ]
    },
    {
      "template":"components/section-col-single",
      "class":"medium-bottom-margin",
      "title":"Our speaker sessions",
      "content":[
        {
          "template":"components/component-sessions",
          "items":[
            {
              "title":"Building end-to-end connected experiences for brand longevity",
              "description":"Today’s consumer expects end-to-end connected brand experiences that rely on incredibly complex technology stacks. If you can’t deliver that, you’re toast. The good news is that Sitecore is further maturing their platform offerings to realize connected experiences with its data enabled composable DXP. Join Horizontal leaders in CX strategy and technology as they discuss the future of Sitecore, how its architecture creates exceptional end-to-end connected customer experiences, and why that matters to the longevity of your brand.",
              "date": {
                "month":"On demand",
                "time":"Originally aired  Wednesday, October 6, 2021"
              },
              "link": {
                "url":"https://e.horizontal.com/symposium-on-demand"
              },
              "speakers":[
                {
                  "name":"Arturo Mendiola",
                  "title":"Horizontal Digital &mdash; VP, Global CX and Platform Solutions",
                  "link":{
                    "url":"https://horizontaldigital.com/insights/arturo",
                    "text":"Get To Know Arturo"
                  },
                  "img":{
                    "src":"https://hztl-fed.azureedge.net/hztl/images/pardot/symposium-2021/speakers/arturo_mendiola.png"
                  }
                },
                {
                  "name":"Sheetal Jain",
                  "title":"Horizontal Digital &mdash; VP, Technology Experience Platform",
                  "link":{
                    "url":"https://horizontaldigital.com/insights/sheetal",
                    "text":"Get To Know Sheetal"
                  },
                  "img":{
                    "src":"https://hztl-fed.azureedge.net/hztl/images/pardot/symposium-2021/speakers/sheetal_jain.png"
                  }
                },
                {
                  "name":"Anne Norman",
                  "title":"Horizontal Digital &mdash; Director of Digital Solutions",
                  "link":{
                    "url":"https://horizontaldigital.com/insights/anne",
                    "text":"Get To Know Anne"
                  },
                  "img":{
                    "src":"https://hztl-fed.azureedge.net/hztl/images/pardot/symposium-2021/speakers/anne_norman.png"
                  }
                }
              ]
            },
            {
              "title":"From drip to downpour: how opening an eCommerce DTC sales channel can rapidly fill your pipeline",
              "description":"Learn how Horizontal Digital launched a new direct-to-consumer eCommerce sales channel for Meghan McGroary, Digital Platforms Leader at Lixil Water Technology, parent company of household brands American Standard and Grohe. The multi-brand eCommerce solution increased DTC sales during the pandemic, and increased efficiencies with new brand rollouts. Hear directly from client Meghan McGroary, Digital Platform Leader and Horizontal’s Jeff Coffey, and Whitney Larson, Marketing Director, as they take you through the real-world case study.",
              "date": {
                "month":"On demand",
                "time":"Originally aired  Wednesday, October 5, 2021"
              },
              "link": {
                "url":"https://e.horizontal.com/symposium-on-demand"
              },
              "speakers":[
                {
                  "name":"Jeff Coffey",
                  "title":"Horizontal Digital &mdash; Associate Director, Client Engagement",
                  "link":{
                    "url":"https://horizontaldigital.com/insights/jeff",
                    "text":"Get To Know Jeff"
                  },
                  "img":{
                    "src":"https://hztl-fed.azureedge.net/hztl/images/pardot/symposium-2021/speakers/jeff_coffey.png"
                  }
                },
                {
                  "name":"Meghan McGroary",
                  "title":"Lixil &mdash; Digital Platform Leader",
                  "img":{
                    "src":"https://hztl-fed.azureedge.net/hztl/images/pardot/symposium-2021/speakers/meghan_mcgroary.jpg"
                  }
                },
                {
                  "name":"Whitney Larson",
                  "title":"Horizontal Digital &mdash; Marketing Director",
                  "link":{
                    "url":"https://horizontaldigital.com/insights/whitney",
                    "text":"Get To Know Whitney"
                  },
                  "img":{
                    "src":"https://hztl-fed.azureedge.net/hztl/images/pardot/symposium-2021/speakers/whitney_larson.png"
                  }
                }
              ]
            },
            {
              "title":"Taking mobile personalization to the next level with Sitecore in a deals app for a large financial institution in the UAE",
              "description":"What do you do when you want to personalize a feed of over 4,000 deals for each one of hundreds of thousands of customers? Well, if you know how to get creative with Sitecore’s personalization capabilities you can do it with ease. At Horizontal Digital, we created a mobile app from start to finish for one of the largest financial institutions in the UAE. The app showcases all the deals from which bank customers can choose, and personalization lies at the heart of how it works. Find out how we did it. ",
              "date": {
                "month":"On demand",
                "time":"Originally aired  Wednesday, October 5, 2021"
              },
              "link": {
                "url":"https://e.horizontal.com/symposium-on-demand"
              },
              "speakers":[
                {
                  "name":"Robert McGovern",
                  "title":"Horizontal Digital &mdash; Digital Strategist",
                  "link":{
                    "url":"https://horizontaldigital.com/insights/robert",
                    "text":"Get To Know Robert"
                  },
                  "img":{
                    "src":"https://hztl-fed.azureedge.net/hztl/images/pardot/symposium-2021/speakers/robert_mcgovern.png"
                  }
                }
              ]
            }
          ]
        }
      ]
    },
    {
      "template": "components/section-col-single",
      "class": "medium-bottom-margin",
      "title": "Our takeaways from Symposium 2021",
      "content": [
        {
          "template": "components/component-video-cards",
          "items": [
            {
              "title": "Our take: 2021 Experience Awards",
              "img": {
                "src": "https://hztl-fed.azureedge.net/hztl/images/pardot/symposium-2021/video/KEY_0001_2021-Experience-Awards.png",
                "alt": "Our take: 2021 Experience Awards"
              },
              "link": {
                "url": "https://vimeo.com/622582131",
                "text": "Watch now"
              },
              "vimeo":{
                "id":"622582131"
              }
            },
            {
              "title": "Our take: launching a new DTC sales channel for LIXIL",
              "img": {
                "src": "https://hztl-fed.azureedge.net/hztl/images/pardot/symposium-2021/video/KEY_0004_launching-a-new-DTC-sales-channel-for-LIXIL.png",
                "alt": "Our take: launching a new DTC sales channel for LIXIL"
              },
              "link": {
                "url": "https://vimeo.com/623733487",
                "text": "Watch now"
              },
              "vimeo":{
                "id":"623733487"
              }
            },
            {
              "title": "Our take: Symposium 2021 opening keynote",
              "img": {
                "src": "https://hztl-fed.azureedge.net/hztl/images/pardot/symposium-2021/video/KEY_0005_Symposium-2021-opening-keynote.png",
                "alt": "Our take: Symposium 2021 opening keynote"
              },
              "link": {
                "url": "https://vimeo.com/623994254",
                "text": "Watch now"
              },
              "vimeo":{
                "id":"623994254"
              }
            },
            {
              "title": "Our take: building connected experiences with Sitecore",
              "img": {
                "src": "https://hztl-fed.azureedge.net/hztl/images/pardot/symposium-2021/video/KEY_0002_Building-connected-experiences-with-Sitecore.png",
                "alt": "Our take: building connected experiences with Sitecore"
              },
              "link": {
                "url": "https://vimeo.com/622757314",
                "text": "Watch now"
              },
              "vimeo":{
                "id":"622757314"
              }
            },
            {
              "title": "Our take: the power of Sitecore Commerce",
              "img": {
                "src": "https://hztl-fed.azureedge.net/hztl/images/pardot/symposium-2021/video/KEY_0003_The-power-of-Sitecore-Commerce.png",
                "alt": "Our take: the power of Sitecore Commerce"
              },
              "link": {
                "url": "https://vimeo.com/624889646",
                "text": "Watch now"
              },
              "vimeo":{
                "id":"624889646"
              }
            },
            {
              "title": "Our take: Symposium 2021 highlights",
              "img": {
                "src": "https://hztl-fed.azureedge.net/hztl/images/pardot/symposium-2021/video/KEY_0000_Symposium-2021-highlights.png",
                "alt": "Our take: Symposium 2021 highlights"
              },
              "link": {
                "url": "https://vimeo.com/626654763",
                "text": "Watch now"
              },
              "vimeo":{
                "id":"626654763"
              }
            }
          ]
        }
      ]
    },
    {
      "template":"components/section-banner-img",
      "class":"theme-gray flush-bottom-margin",
      "col":"col-md-8",
      "img":{
        "src":"https://hztl-fed.azureedge.net/hztl/images/pardot/symposium-2021/curve2.png"
      },
      "featureimg":{
        "src":"https://hztl-fed.azureedge.net/hztl/images/pardot/symposium-2021/BCE_Bookcover.png",
        "alt":"Sitecore Content Hub ebook"
      },
      "content": [
        {
          "template":"components/rte",
          "content":"<h3 class=\"with-eyebrow display-1\">Hot of the press</h3><p class=\"display-2\">Sitecore’s composable DXP framework is big news for brands</p><p>Download our new white paper, \"Building Connected Experiences with Sitecore\" to learn more.</p><div style=\"margin-top:40px;\"><a href=\"https://e.horizontaldigital.com/scconnectedexperiences\" class=\"btn btn-peach\">Get our Sitecore Whitepaper <i class=\"fas fa-arrow-right\"></i></a></div>"
        }
      ]
    },
    {
      "template":"components/section-banner",
      "class":"flush-bottom-margin",
      "col":"col-md-8",
      "style":"max-width:100%",
      "content": [
        {
          "template":"components/rte",
          "content":"<h3 class=\"with-eyebrow display-1\">Stay connected</h3><p class=\"display-3\">Want to learn more or have questions about connected experiences? Let’s chat!</p><div style=\"margin-top:40px;\"><a href=\"https://www.horizontaldigital.com/contact-us\" class=\"btn btn-outline btn-lite\">Let's Connect</a></div>"
        }
      ]
    }
  ]
}
