{
  "title": "Sitecore Symposium 2021 On-demand Sessions | Horizontal Digital",
  "meta": {
    "description": "An experience-forward digital consultancy, solving CX challenges across the full customer lifecycle."
  },
  "og": {
    "title":"Sitecore Symposium 2021 On-demand Sessions | Horizontal Digital",
    "description":"An experience-forward digital consultancy, solving CX challenges across the full customer lifecycle.",
    "url":"https://horizontaldigital.com/",
    "sitename":"Horizontal Digital",
    "img":{
      "src":"https://hztl-fed.azureedge.net/hztl/images/HZTL_SocialImage.png"
    }
  },
  "components": [
    {
      "template":"components/section-banner",
      "class":"theme-dark medium-bottom-margin",
      "style":"max-width:100%",
      "content": [
        {
          "template":"components/rte",
          "content":"<div style=\"text-align:center;\"><img class=\"img-fluid\" alt=\" \" src=\"https://hztl-fed.azureedge.net/hztl/images/pardot/symposium-2021/ondemand.png\"></div><h1 class=\"sr-only\">Horizontal Digital and Sitecore Symposium 2021: On-demand</h1><h2 class=\"display-3\" style=\"margin-top:30px;text-align:center;\">Our Symposium 2021 sessions on-demand</h2>"
        }
      ],
      "img":{
        "src":"https://hztl-fed.azureedge.net/hztl/images/pardot/symposium-2021/banner_dark_bg.png"
      }
    },
    {
      "template": "components/section-col-single",
      "class": "collapse-bottom-margin",
      "title": "Our Symposium 2021 sessions on-demand",
      "content": [
        {
          "template": "components/component-video-cards",
          "items": [
            {
              "title": "Building end-to-end connected experiences for brand longevity",
              "description":"<p>Horizontal leaders in CX strategy and technology discuss the future of Sitecore, how its architecture creates exceptional end-to-end connected customer experiences, and why that matters to the longevity of your brand.</p>",
              "img": {
                "src": "https://hztl-fed.azureedge.net/hztl/images/pardot/symposium-2021/video/0002_Building-end-to-end-connected-experiences-for-brand-longevity.jpg",
                "alt": "Play video: Building end-to-end connected experiences for brand longevity"
              },
              "link": {
                "url": "https://vimeo.com/613785017",
                "text": "Watch now"
              },
              "vimeo":{
                "id":"613785017"
              }
            },
            {
              "title": "From drip to downpour",
              "description":"<p>Learn how this multi-brand, multi-region and multi-language eCommerce solution increased DTC sales Lixil Water Technology while increasing efficiencies with new brand rollouts for legacy brands American Standard and Grohe.</p>",
              "img": {
                "src": "https://hztl-fed.azureedge.net/hztl/images/pardot/symposium-2021/video/0001_LIXIL.jpg",
                "alt": "Play video: From drip to downpour"
              },
              "link": {
                "url": "https://vimeo.com/610370727",
                "text": "Watch now"
              },
              "vimeo":{
                "id":"610370727"
              }
            },
            {
              "title": "Taking mobile personalization to the next level",
              "description":"<p>Discover how Horizontal leveraged Sitecore’s personalization capabilities to provide a hyper-personalized experience in a custom mobile app to over 4,000 deals for one of the largest financial institutions in the UAE.</p>",
              "img": {
                "src": "https://hztl-fed.azureedge.net/hztl/images/pardot/symposium-2021/video/0000_Taking-mobile-personalization-to-the-next-level.jpg",
                "alt": "Play video: Taking mobile personalization to the next level"
              },
              "link": {
                "url": "https://vimeo.com/636312117",
                "text": "Watch now"
              },
              "vimeo":{
                "id":"636312117"
              }
            }
          ]
        }
      ]
    },
    {
      "template":"components/section-banner",
      "class":"flush-bottom-margin",
      "col":"col-md-8",
      "style":"max-width:100%",
      "content": [
        {
          "template":"components/rte",
          "content":"<h3 class=\"with-eyebrow display-2\">See more of our Sitecore work featured during Symposium</h3><p>As a Sitecore Platinum Partner, we’ve helped 100+ enterprise brands unlock the power of Sitecore to build unforgettable digital connections. It’s what’s earned us the Sitecore Global Excellence in Product Expertise award and is what continues to allow us to raise the bar for your clients.</p><div style=\"margin-top:40px;\"><a href=\"https://e.horizontal.com/symposium\" class=\"btn btn-outline btn-lite\">View our Symposium highlights</a></div>"
        }
      ]
    }
  ]
}
